0
1
2
3
5
7
11
13
17
19
23
29
31
37
41
43211

47223

53227

59229

61233

67239

71241

73251

401257
79409


26383

419269
89

42197
271431


101277

433281103


107439

109443283


113449

127457

131461

293463137


139307467


149311
479151


157487

313491163


317499
167

331503
173

337179509


347181

521601
191523

349

541193353607



359613

197617367
547
199
373619



379557

631383
563
641389


569397

643571

647577

653587

593659

599661
673809

677811

683821

691823

827701

829709


719839

727853

733857

739859

743863

751809
877
757

811881761

769883


821773887


823787907


827797911


829919

839929

853937

857941

859947

863953

877967

881971

883977

887983

907991

911997

919
929
937
941
947
953
967
971
977
983
991
997
